{
  "project_info": {
    "project_number": "73383048821",
    "firebase_url": "https://trackgeolocation-android.firebaseio.com",
    "project_id": "trackgeolocation-android",
    "storage_bucket": "trackgeolocation-android.appspot.com"
  },
  "client": [
    {
      "client_info": {
        "mobilesdk_app_id": "1:73383048821:android:c380e0159fb3b95d",
        "android_client_info": {
          "package_name": "pro.mobiledev.trackgeolocation.demo"
        }
      },
      "oauth_client": [
        {
          "client_id": "73383048821-pkl32dilshthu3spfcai36vdjh06u8rb.apps.googleusercontent.com",
          "client_type": 1,
          "android_info": {
            "package_name": "pro.mobiledev.trackgeolocation.demo",
            "certificate_hash": "30968B8CEF76E22796BC024E6CBACF0E112B4637"
          }
        },
        {
          "client_id": "73383048821-c24t52bi1e7rjgoam72191cr7p0nhrg6.apps.googleusercontent.com",
          "client_type": 3
        }
      ],
      "api_key": [
        {
          "current_key": "AIzaSyDPRkyljq2GOOMp90zRnucJ4oituQK1Xu8"
        }
      ],
      "services": {
        "analytics_service": {
          "status": 1
        },
        "appinvite_service": {
          "status": 2,
          "other_platform_oauth_client": [
            {
              "client_id": "73383048821-c24t52bi1e7rjgoam72191cr7p0nhrg6.apps.googleusercontent.com",
              "client_type": 3
            }
          ]
        },
        "ads_service": {
          "status": 2
        }
      }
    }
  ],
  "configuration_version": "1"
}